﻿Frequency,Nominal,Min,Max
2000,462971.69136097253,428827.3381101168,500428.93574877165
2046.5859845615082,447837.9758201631,414493.9703883866,484439.0583461005
2094.257096101799,433076.0222858132,400523.22034439875,468831.0674062344
2143.038610475213,418680.6458055751,386909.98577061633,453599.59461541293
2192.95639228637,404646.7267825398,373649.19799301523,438739.3724157932
2244.036908603927,390969.19841189514,360735.81079494633,424245.22048957483
2296.307242993765,377643.0346681574,348164.79008350754,410112.0325771638
2349.7951098790586,364663.23891544744,335931.10435701103,396334.76370749925
2404.5288692348254,352024.833208663,324029.71602511173,382908.4179175201
2460.5375416247625,339722.84834782936,312455.57362502057,369828.0365349155
2517.8508235883337,327752.3147413247,301203.60496862314,357088.68709465454
2576.499103386267,316108.25412615854,290268.71124609443,344685.4529550828
2636.5134771128132,304785.6721855839,279645.762102162,332613.42367340584
2697.9257651833063,293779.5520951772,269329.59169153316,320867.6861938563
2760.7685292057686,283084.84901983873,259314.99571039388,309443.316894025
2825.0750892455076,272696.4855742996,249596.72939127783,298335.3745269665
2890.879541491854,262609.34825045674,240169.50643971268,287538.89408756414
2958.2167763364137,252818.28480529945,231027.99888222525,277048.88162281434
3027.122496872415,243318.10259392243,222166.83778733588,266860.3099960751
3097.6332378249613,234103.56782328777,213580.61481389747,256968.11560606636
3169.7863849222254,225169.40569406984,205263.8845345592,247367.19605204187
3243.6201947178583,216510.30139018127,197211.16747673776,238052.4087274701
3319.1738148751197,208120.90186867488,189416.9538186765,229018.5703159359
3396.487304923487,199995.8183965756,181875.70767471485,220260.45715498185
3475.6016574987493,192129.62977607126,174581.8719011178,211772.80642599997
3556.558820077844,184516.88619519363,167529.8733522963,203550.31812184863
3639.401717219965,177152.11363789949,160714.12851646997,195587.65773788776
3724.174273325733,170029.81878522647,154129.04946009995,187879.45962740708
3810.921435926492,163144.49433779533,147769.05001147726,180420.33095832137
3899.689199516088,156490.62468969394,141628.55211572984,173204.8562052308
3990.5246299377563,150062.6918841583,135701.9922960239,166227.60210879162
4083.475889339056,143855.18178289302,129983.82815894618,159483.1230334037
4178.592261708076,137862.59038288784,124468.54488571489,152965.96665405008
4275.924179004461,132079.43021733823,119150.66165494807,146670.67990385162
4375.523247899101,126500.23678058662,114024.7379471926,140591.81511538872
4477.442277136675,121119.57492076636,109085.37968605699,134723.93629113617
4581.735305535542,115932.04514802832,104327.24517563172,129061.62544111458
4688.457630639839,110932.28981065673,99745.05079877083,123599.488929358
4797.665838038976,106114.9990960931,95333.5764456833,118332.1637745728
4909.417831370056,101474.91681864887,91087.6706471403,113254.32385459518
5023.772863019155,97006.84596054867,87002.25539126384,108360.68596875004
5140.791565537722,92705.6539377394,83072.3306073893,103646.0157168195
5260.535983790758,88566.27756665078,79292.97830479247,99105.13315813882
5383.069607853826,84583.72771263945,75659.36635811192,94732.91821908284
5508.457406676327,80753.09360527684,72166.75193505666,90524.31582195994
5636.765862528901,77069.54680976462,68810.48456546593,86474.34071296689
5768.0630062532055,73528.34484769116,65586.00885394853,82578.08197133795
5902.418453332764,70124.83446395336,62488.86684117965,78830.70718610102
6039.903440804025,66854.45453999852,59514.70002149203,75227.46629090788
6180.590865027173,63712.73865655629,56659.25102663304,71763.69505118033
6324.55532033675,60695.317311760125,53918.3649875292,68434.81820134216
6471.873138592556,57797.91980296888,51287.99058758786,65236.35223308117
6622.622429651812,55016.37578272552,48764.18082250128,62163.90783853313
6776.883122784041,52346.61650113545,46343.09348273085,59213.192014858076
6934.737009050622,49784.675748535694,44020.991375859994,56380.00983901278
7096.267784671498,47326.69051367153,41794.242306834516,53660.26592353666
7261.561095402015,44968.901373721936,39659.3188348139,51049.965565937906
7430.704581943438,42707.6526334618,37612.797825940484,48545.2156057632
7603.787926411211,40539.392231624945,35651.35982186766,46142.2250047079
7780.902899885598,38460.67143319019,33771.788244390824,43837.305166196165
7962.143411069931,36468.144326877285,31970.968457070587,41626.87001174162
8147.60555608224,34558.56714765967,30245.88670536646,39507.43583214365
8337.387669406693,32728.797444619362,28593.62895760113,37475.620932194
8531.590376031838,30975.793115039163,27011.37967013041,35528.14508812551
8730.316644803303,29296.611326321563,25496.420501513454,33661.82883753945
8933.671843019245,27688.407348207482,24046.129002410322,31873.592622082975
9141.763792297483,26148.433318949268,22657.97731056063,30160.45580374722
9354.702825743945,24674.036970685953,21329.53088376387,28519.535576392984
9572.601846452748,23262.660341433875,20058.44730861854,26948.04579507011
9795.576387368905,21911.838504045598,18842.475229329855,25443.295746980817
10023.744672545427,20619.198346481808,17679.453449772,24002.688889667297
10257.227679827278,19382.45744314127,16567.310274040392,22623.721584362207
10496.149204995432,18199.423064313087,15504.063167136721,21303.981855633407
10740.635927405034,17067.99138073017,14487.818839864365,20041.14821278803
10990.81747715247,15986.146933677723,13516.773892862027,18832.988574362393
11246.82650380696,14951.962459475764,12589.216197395368,17677.359344965444
11508.798746743116,13963.599182325055,11703.527250024099,16572.20470450956
11776.873107111756,13019.307724185139,10858.185821818719,15515.556184498584
12051.191721487132,12117.429828470636,10051.77334105934,14505.532626027176
12331.90003722962,11256.40116159477,9282.981617005496,13540.340641564002
12619.14688960384,10434.755551088983,8550.623754535565,12618.275740447045
12913.084580693085,9651.1311534313,7853.649459207571,11737.72433064472
13213.868960151893,8904.27923688763,7191.166438744811,10897.166883038562
13521.659507839608,8193.076541210563,6562.470338835527,10095.18264850643
13836.619418378701,7516.542575797118,5967.086697685276,9330.456466033482
14158.91568768273,6873.863796425187,5404.82986091551,8601.78841200883
14488.71920149977,6264.427433794692,4875.885708869619,7908.1073462602435
14826.204826018318,5687.868927927794,4380.927213014912,7248.489852062777
15171.551500583642,5144.138535120408,3921.2732971483706,6622.186705885752
15524.9423325738,4633.594698048644,3499.099223939043,6028.659928713258
15886.564694485594,4157.133798065216,3117.692905797002,5467.634757772667
16256.610323281948,3716.366406728222,2781.708893669257,4939.172601489169
16635.275422053382,3313.844701767962,2497.272165168412,4443.77310714579
17022.76076404749,2953.3235073304595,2271.613683577846,3982.515248747056
17419.271799121572,2639.97683336108,2111.7849464565415,3557.246702080437
17825.01876267487,2380.3649339136127,2022.2724128095513,3170.8219046600466
18240.216787118152,2181.7689311049294,1975.6431193119658,2827.358625208605
18665.086015939778,2050.4778736583294,1954.6688606633795,2532.405959535043
19099.851720428676,1989.1693128877405,1893.9616555741316,2292.770192440615
19544.74441911617,1994.7216323441403,1893.2538919219955,2271.79457324993
19999.999999999956,2058.252653508462,1912.2720770262085,2431.0201273020625
20465.859845615036,2167.5552117122056,1954.4883728205332,2607.49986093075
20942.570961017944,2310.141621113595,1989.5844344866289,2794.148853159569
21430.38610475208,2475.235503773891,2067.2183872033265,2985.8626827615253
21929.56392286365,2654.4300742663263,2186.3716971886192,3179.0411201048782
22440.369086039216,2841.5342299122235,2335.062210299071,3371.1748401234395
22963.0724299376,3032.1291663912225,2503.310931150759,3560.530222026532
23497.951098790534,3223.1133792333158,2683.490560471364,3745.9220644188126
24045.2886923482,3412.33179599307,2870.0460940822377,3926.553493394339
24605.37541624757,3598.300326003839,3059.0355477123617,4101.903978417271
25178.50823588328,3780.009444548762,3247.7007160465373,4271.650856897702
25764.991033862614,3956.786339616961,3434.129467719822,4435.613985128417
26365.134771128076,4128.19844697272,3617.0087470367484,4593.716357342322
26979.257651833002,4293.985682938102,3795.4495373437785,4745.955813215929
27607.685292057624,4454.01247939493,3968.864204736744,4892.384511045335
28250.75089245501,4608.233520986054,4136.880590881537,5033.093893710914
28908.79541491847,4756.669029556809,4299.281531168038,5168.20358077193
29582.167763364065,4899.3867617896785,4455.961926097465,5297.853096700161
30271.224968724076,5036.488775541378,4606.897982667728,5422.195669159008
30976.332378249535,5168.101619510541,4752.124958720049,5541.39355322151
31697.863849222176,5294.369006327804,4891.7209048781615,5655.614491026122
32436.201947178502,5415.446305636226,5025.794680785659,5765.02902372919
33191.738148751116,5531.49638395698,5154.477049777644,5869.808448416059
33964.87304923479,5642.686450304711,5277.914013873601,5970.123266695798
34756.01657498741,5749.185659278044,5396.261795592053,6066.142010643575
35565.58820077835,5851.163289115233,5509.683041900301,6158.030360069376
36394.01717219956,5948.787359296929,5618.343943269186,6245.950485870808
37241.74273325723,6042.223586327985,5722.412043638128,6330.060569611531
38109.21435926482,6131.634601182539,5822.054576004761,6410.514460952551
38996.89199516078,6217.179370199953,5917.437200663873,6487.461443207989
39905.24629937746,6299.0127748166415,6008.723053802149,6561.046083852864
40834.75889339045,6377.285315703829,6096.072036611921,6631.408151818562
41785.92261708064,6452.142914570542,6179.640291670594,6698.682587263866
42759.24179004449,6523.726792739904,6259.579825683626,6762.9995124919315
43755.232478990896,6592.173410087048,6336.0382469631195,6824.48427500694
44774.42277136663,6657.614451382561,6409.158593031913,6883.257515524675
45817.3530553553,6720.176849767081,6479.079229092779,6939.435255185504
46884.576306398274,6779.982839177039,6545.933802209075,6993.128997354141
47976.658380389636,6837.150029185973,6609.851239216617,7044.445840294355
49094.17831370043,6891.791497024288,6670.9557788542825,7093.488597729392
50237.72863019142,6944.015892570558,6729.36703053113,7140.355924878642
51407.91565537709,6993.927552928805,6785.200053666237,7185.142448028579
52605.35983790745,7041.626623863885,6838.5654527380475,7227.938896073772
53830.696078538116,7087.209185895739,6889.569484134157,7268.832232770458
55084.574066763125,7130.767383280084,6938.314171654106,7307.9057886945175
56367.65862528887,7172.389554448516,6984.89742812833,7345.239392099292
57680.630062531905,7212.1603627617305,7029.413181108083,7380.909498034891
59024.18453332749,7250.1609266581245,7071.951500978055,7414.989315227042
60399.03440804009,7286.468948466615,7112.598730165386,7447.548930325175
61805.90865027157,7321.158841305419,7151.437612380403,7478.655429221198
63245.553203367344,7354.301853613493,7188.54742103773,7508.373015215895
64718.7313859254,7385.9661909641645,7224.004086180662,7536.763123871703
66226.22429651796,7416.217134894823,7257.88031937443,7563.8845344415195
67768.83122784024,7445.117158555879,7290.245736150958,7589.793477805009
69347.37009050605,7472.726039039113,7321.166975683752,7614.543740877818
70962.67784671481,7499.1009662923625,7350.707817450464,7638.18676748728
72615.61095401998,7524.296648565754,7378.929294705567,7660.771755730621
74307.0458194342,7548.365414366147,7405.889804638754,7682.345751850229
76037.87926411192,7571.357310921966,7431.645215138521,7702.953740675174
77809.02899885579,7593.320199181341,7456.248968116092,7722.638732689991
79621.4341106991,7614.299845383434,7479.75217937426,7741.4418478009875
81476.05556082219,7634.340009255968,7502.203735029493,7759.402395877434
83373.87669406671,7653.482528902944,7523.650384515054,7776.55795415052
85315.90376031815,7671.767402454712,7544.1368302084975,7792.944441556789
87303.1664480328,7689.232866558972,7563.705813739305,7808.596190115686
89336.71843019222,7705.915471796212,7582.398199042362,7823.546013432458
91417.6379229746,7721.850155106386,7600.253052230635,7837.825272418653
93547.02825743922,7737.0703093161665,7617.307718366259,7851.46393832268
95726.01846452724,7751.607849857343,7633.5978952136065,7864.490653162546
97955.76387368879,7765.493278767733,7649.157704061082,7876.93278765207
100237.44672545399,7778.755746065897,7664.019757700258,7888.81649671071
102572.27679827249,7791.4231085904785,7678.215225652368,7900.166772645682
104961.49204995403,7803.52198639404,7691.773896732439,7911.007496093212
107406.35927405005,7815.077816779986,7704.724239041307,7921.361484803981
109908.1747715244,7826.114906069592,7717.0934574750745,7931.250540355596
112468.2650380693,7836.656479184381,7728.907548840619,7940.695492872868
115087.98746743085,7846.724727127137,7740.191354664279,7949.7162438342875
117768.73107111725,7856.340852442678,7750.968611779356,7958.331807040862
120511.91721487099,7865.52511273745,7761.262000776209,7966.56034782105
123319.00037229586,7874.296862334615,7771.093192396644,7974.419220543191
126191.46889603806,7882.674592139012,7780.482891952402,7981.925004504454
129130.84580693049,7890.675967784134,7789.450881845135,7989.093538262973
132138.68960151856,7898.317866130768,7798.016062263154,7995.939952477427
135216.5950783957,7905.616410184729,7806.196490127892,8002.478701316172
138366.19418378663,7912.587002498696,7814.009416360659,8008.723592495646
141589.1568768269,7919.244357120967,7821.471321538058,8014.687816005539
144887.1920149973,7925.602530151561,7828.597950002016,8020.383971576165
148262.04826018278,7931.674948963997,7835.404342488112,8025.824094941252
151715.515005836,7937.474440148806,7841.904867333693,8031.019682947333
155249.42332573756,7943.013256232785,7848.1132503249355,8035.981717558961
158865.64694485549,7948.303101225842,7854.04260323991,8040.720688806953
162566.103232819,7953.355155045375,7859.705451142525,8045.246616725056
166352.75422053333,7958.180096866073,7865.113758480132,8049.569072318553
170227.6076404744,7962.788127441155,7870.278954035608,8053.697197606582
174192.7179912152,7967.188990439284,7875.211954782642,8057.639724778259
178250.18762674817,7971.3919928394835,7879.923188691132,8061.404994500976
182402.16787118098,7975.406024424804,7884.422616527689,8065.000973417784
186650.8601593972,7979.2395764137145,7888.7197526944465,8068.435270869072
190998.51720428615,7982.900759266625,7892.823685147613,8071.715154872479
195447.44419116108,7986.397319703449,7896.743094435568,8074.847567393359
199999.99999999892,7989.7366569665155,7900.486271894613,8077.839138936894
204658.59845614972,7992.925838361807,7904.06113703894,8080.696202491598
209425.70961017878,7995.971614110033,7907.475254179886,8083.424806852632
214303.86104752013,7998.880431537803,7910.735848308062,8086.030729352276
219295.63922863582,8001.658448637805,7913.849820270502,8088.519488023556
224403.69086039148,8004.311547025698,7916.82376127372,8090.896353222095
229630.72429937532,8006.845344320271,7919.663966742146,8093.166358730014
234979.51098790465,8009.265205972256,7922.3764495602645,8095.334312364842
240452.88692348127,8011.576256566043,7924.966952725497,8097.404806115232
246053.75416247497,8013.783390617684,7927.440961437751,8099.382225824498
251785.08235883206,8015.891282891268,7929.803714650477,8101.270760441988
257649.91033862537,8017.904398255167,7932.060216106915,8103.074410861419
263651.34771127993,8019.8270010983015,7934.215244884323,8104.796998364557
269792.5765183292,8021.663164326125,7936.273365467876,8106.442172687739
276076.8529205754,8023.416777954826,7938.23893737508,8108.013419728016
282507.50892454927,8025.091557321625,7940.116124350543,8109.514068904951
289087.9541491839,8026.691050928247,7941.908903150228,8110.947300193373
295821.67763363983,8028.218647933808,7943.6210719333,8112.316150841808
302712.24968723994,8029.677585312806,7945.256258279055,8113.6235217905305
309763.3237824945,8031.070954693006,7946.817926845545,8114.872183802687
316978.6384922209,8032.401708887597,7948.309386685852,8116.064783321288
324362.0194717841,8033.6726681351565,7949.733798237218,8117.203848064306
331917.3814875102,8034.886526060524,7951.094179997618,8118.29179236958
339648.7304923469,8036.04585536897,7952.3934149036595,8119.330922300758
347560.1657498731,8037.153113285654,7953.634256423172,8120.323440524934
355655.8820077825,8038.210646751672,7954.819334375183,8121.271450972209
363940.1717219946,8039.220697387643,7955.951160489427,8122.176963286989
372417.4273325713,8040.185406235175,7957.032133717064,8123.04189708031
381092.14359264716,8041.106818286216,7958.064545303683,8123.8680859921415
389968.9199516067,8041.986886809744,7959.050583635227,8124.6572815722375
399052.4629937735,8042.827477484874,7959.992338867018,8125.411156987626
408347.5889339034,8043.63037234912,7960.891807345564,8126.131310564581
