﻿Frequency,Nominal,Min,Max
0,0.000008241993466491259
3.90625e-7,-0.00001434405629143922
7.8125e-7,0.000012537446790803357
0.0000011718750000000001,0.000004523060974758823
0.0000015625,0.000005215742225427343
0.000001953125,0.000006597961591217872
0.0000023437500000000002,0.000008890726709680487
0.000002734375,0.000012317602923235563
0.000003125,0.000017112180021144416
0.0000035156250000000003,0.00002352681651318144
0.00000390625,0.000031842490905857994
0.000004296875,0.00004237959388405917
0.0000046875000000000004,0.0000555095000281802
0.000005078125000000001,0.00007166676270164461
0.00000546875,0.00009136178100615101
0.000005859375,0.0001151937932025582
0.00000625,0.00014386405671404026
0.0000066406250000000005,0.00017818908074504876
0.000007031250000000001,0.0002191137836450121
0.000007421875,0.00026772445339938184
0.0000078125,0.0003252613960232141
0.000008203125000000001,0.0003931311631439107
0.00000859375,0.00047291825667085245
0.000008984375,0.0005663962151409804
0.000009375000000000001,0.0006755379930819209
0.000009765625,0.0008025255515293327
0.000010156250000000001,0.0009497585846542085
0.000010546875,0.0011198623142809837
0.0000109375,0.001315694290890602
0.000011328125000000001,0.0015403501464871577
0.00001171875,0.0017971682514452193
0.000012109375000000001,0.002089733234131556
0.0000125,0.0024218783286933734
0.000012890625,0.0027976865229105284
0.000013281250000000001,0.0032214904844065596
0.000013671875,0.0036978712497883993
0.000014062500000000001,0.004231655667424412
0.000014453125,0.004827912590561103
0.00001484375,0.005491947823309042
0.000015234375000000001,0.006229297827686016
0.000015625,0.0070457222053795605
0.000016015625,0.007947194973171198
0.000016406250000000002,0.008939894656041746
0.000016796875,0.010030193226841764
0.0000171875,0.01122464392605551
0.000017578125000000002,0.012529967999603047
0.00001796875,0.013953040396807148
0.000018359375,0.015500874474592531
0.000018750000000000002,0.01718060575768034
0.000019140625,0.018999474807985126
0.00001953125,0.02096480925961195
0.000019921875,0.023084005078783627
0.000020312500000000002,0.025364507110701123
0.000020703125,0.02781378897775001
0.00002109375,0.030439332395614815
0.000021484375000000002,0.03324860597574712
0.000021875,0.03624904358425496
0.000022265625,0.03944802232864151
0.000022656250000000002,0.042852840244919296
0.000023046875,0.046470693758468254
0.0000234375,0.050308654992591205
0.000023828125,0.054373648999054114
0.000024218750000000003,0.05867243098498443
0.000024609375,0.06321156361034297
0.000025,0.06799739442978882
0.000025390625000000002,0.07303603355212859
0.00002578125,0.07833333158968445
0.000026171875,0.08389485796884105
0.000026562500000000002,0.08972587967174256
0.000026953125000000003,0.09583134047761489
0.00002734375,0.10221584077049829
0.000027734375,0.10888361797829005
0.000028125000000000003,0.11583852770593671
0.000028515625,0.12308402562337531
0.00002890625,0.13062315016642762
0.000029296875000000002,0.13845850610629434
0.0000296875,0.14659224904060064
0.000030078125,0.15502607085610992
0.000030468750000000002,0.16376118621026947
0.000030859375,0.1727983200756732
0.00003125,0.1821376963883591
0.000031640625,0.1917790278375841
0.00003203125,0.20172150683136592
0.000032421875,0.21196379766866208
0.000032812500000000005,0.22250402994555885
0.000033203125,0.2333397932193116
0.00003359375,0.244468132950491
0.000033984375000000004,0.2558855477398819
0.000034375,0.26758798787314264
0.000034765625,0.2795708551825992
0.000035156250000000004,0.2918290042318933
0.000035546875,0.3043567448255807
0.0000359375,0.3171478458421564
0.000036328125000000004,0.3301955403853938
0.00003671875,0.3434925322453525
0.000037109375,0.357031003656893
0.000037500000000000003,0.37080262434010597
0.000037890625,0.38479856180368127
0.00003828125,0.39900949288893917
0.000038671875,0.4134256165290222
0.0000390625,0.4280366676946139
0.000039453125000000005,0.4428319324945128
0.00003984375,0.45780026439645644
0.000040234375,0.4729301015307691
0.000040625000000000005,0.48820948503669465
0.000041015625,0.5036260784086992
0.00004140625,0.5191671877975654
0.000041796875000000005,0.5348197832187808
0.0000421875,0.5505705206185355
0.000042578125,0.5664057647456042
0.000042968750000000004,0.5823116127754833
0.000043359375,0.5982739186314189
0.00004375,0.6142783179453501
0.000044140625000000004,0.6303102536003733
0.00004453125,0.6463550017950254
0.000044921875,0.6623976985685907
0.000045312500000000004,0.6784233667256477
0.000045703125,0.6944169430972896
0.00004609375,0.7103633060758058
0.000046484375,0.726247303359143
0.000046875,0.7420537798411397
0.000047265625000000005,0.7577676055833926
0.00004765625,0.7733737038046048
0.000048046875,0.7888570788234462
0.000048437500000000005,0.8042028438912725
0.000048828125,0.8193962488515366
0.00004921875,0.834422707563349
0.000049609375000000005,0.8492678250274298
0.00005,0.8639174241536289
0.000050390625,0.8783575721102428
0.000050781250000000004,0.8925746061965905
0.000051171875,0.9065551591816284
0.0000515625,0.9202861840528787
0.000051953125000000004,0.9337549781215334
0.00005234375,0.9469492064313185
0.000052734375,0.9598569244205324
0.000053125000000000004,0.9724665997886374
0.000053515625,0.9847671335207939
0.000053906250000000006,0.9967478800259159
0.000054296875000000004,1.0083986663460298
0.0000546875,1.0197098103970692
0.000055078125000000006,1.0306721382036264
0.00005546875,1.0412770000926603
0.000055859375,1.051516285813725
0.000056250000000000005,1.0613824385558446
0.000056640625,1.0708684678338718
0.00005703125,1.0799679612198192
0.000057421875000000005,1.08867509489744
0.0000578125,1.0969846430210648
0.000058203125,1.1048919858625585
0.000058593750000000005,1.112393116733025
0.000058984375,1.1194846476687528
0.000059375,1.1261638138737406
0.000059765625000000004,1.132428476913935
0.00006015625,1.1382771266611975
0.000060546875,1.1437088819877812
0.000060937500000000004,1.148723490214917
0.00006132812500000001,1.153321325321878
0.00006171875,1.1575033849245842
0.000062109375,1.1612712860355572
0.0000625,1.1646272596196194
0.000062890625,1.167574143962372
0.00006328125,1.170115376870991
0.00006367187500000001,1.1722549867293672
0.0000640625,1.1739975824320212
0.000064453125,1.1753483422235345
0.00006484375,1.1763130014725363
0.000065234375,1.176897839411394
0.00006562500000000001,1.1771096648749044
0.00006601562500000001,1.1769558010732188
0.00006640625,1.176444069436182
0.000066796875,1.1755827725680306
0.0000671875,1.1743806763531104
0.000067578125,1.1728469912548707
0.00006796875000000001,1.1709913528518645
0.000068359375,1.1688238016558883
0.00006875,1.1663547622586266
0.000069140625,1.1635950218543378
0.00006953125,1.1605557081871705
0.000069921875,1.1572482669725634
0.00007031250000000001,1.1536844388430563
0.000070703125,1.149876235869455
0.00007109375,1.1458359177089033
0.000071484375,1.1415759674318235
0.000071875,1.1371090670800474
0.00007226562500000001,1.132448073008618
0.00007265625000000001,1.1276059910638825
0.000073046875,1.122595951650409
0.0000734375,1.1174311847391607
0.000073828125,1.112124994869068
0.00007421875,1.1066907361937508
0.00007460937500000001,1.1011417876247125
0.00007500000000000001,1.0954915281216482
0.000075390625,1.0897533121798642
0.00007578125,1.083940445563975
0.000076171875,1.0780661613361227
0.0000765625,1.0721435962259551
0.00007695312500000001,1.0661857673885227
0.00007734375,1.0602055495949887
0.000077734375,1.0542156528998268
0.000078125,1.0482286008267605
0.000078515625,1.0422567091142676
0.00007890625000000001,1.0363120650599176
0.00007929687500000001,1.0304065075012345
0.0000796875,1.024551607469065
0.000080078125,1.0187586495477283
0.00008046875,1.013038613974395
0.000080859375,1.0074021595083156
0.00008125000000000001,1.0018596070985721
0.00008164062500000001,0.9964209243771314
0.00008203125,0.9910957110019233
0.000082421875,0.9858931848726888
0.0000828125,0.9808221692402533
0.000083203125,0.9758910807277937
0.00008359375000000001,0.9711079182805695
0.00008398437500000001,0.9664802530584616
0.000084375,0.9620152192834959
0.000084765625,0.9577195060524368
0.00008515625,0.9535993501223239
0.000085546875,0.9496605296747321
0.00008593750000000001,0.9459083590623708
0.000086328125,0.9423476845395075
0.00008671875,0.9389828809756202
0.000087109375,0.9358178495495495
0.0000875,0.9328560164194049
0.00008789062500000001,0.9301003323614161
0.00008828125000000001,0.9275532733689176
0.000088671875,0.9252168422007336
0.0000890625,0.9230925708662452
0.000089453125,0.9211815240326122
0.00008984375,0.9194843033377719
0.00009023437500000001,0.9180010525910421
0.00009062500000000001,0.916731463841491
0.000091015625,0.9156747842925475
0.00009140625,0.9148298240397399
0.000091796875,0.9141949646069352
0.0000921875,0.9137681682549841
0.00009257812500000001,0.9135469880353013
0.00009296875,0.9135285785595783
0.000093359375,0.9137097074556152
0.00009375,0.9140867674780775
0.000094140625,0.9146557892419076
0.00009453125000000001,0.9154124545451344
0.00009492187500000001,0.9163521102468785
0.0000953125,0.9174697826655576
0.000095703125,0.9187601924614949
0.00009609375,0.9202177699675269
0.000096484375,0.9218366709305732
0.00009687500000000001,0.9236107926266784
0.00009726562500000001,0.9255337903116171
0.00009765625,0.9275990939688173
0.000098046875,0.9297999253161557
0.0000984375,0.9321293150329988
0.000098828125,0.9345801201688317
0.00009921875000000001,0.9371450416948048
0.00009960937500000001,0.939816642159667
0.0001,0.9425873634117284
0.000100390625,0.9454495443487491
0.00010078125,0.9483954386580369
0.00010117187500000001,0.9514172325094306
0.00010156250000000001,0.9545070621643604
0.000101953125,0.9576570314647709
0.00010234375,0.9608592291663193
0.000102734375,0.9641057460809903
0.000103125,0.9673886919950812
0.00010351562500000001,0.9707002123293218
0.00010390625000000001,0.9740325045088597
0.000104296875,0.9773778340117735
0.0001046875,0.980728550065862
0.000105078125,0.9840771009644949
0.00010546875,0.9874160489735038
0.00010585937500000001,0.9907380848022316
0.00010625000000000001,0.9940360416131454
0.000106640625,0.9973029085456594
0.00010703125,1.0005318437311408
0.000107421875,1.0037161867774418
0.00010781250000000001,1.0068494707026523
0.00010820312500000001,1.0099254332992258
0.00010859375000000001,1.0129380279110223
0.000108984375,1.0158814336073219
0.000109375,1.0187500647393013
0.000109765625,1.0215385798659913
0.00011015625000000001,1.0242418900382249
0.00011054687500000001,1.0268551664306094
0.0001109375,1.0293738473130702
0.000111328125,1.0317936443550353
0.00011171875,1.0341105482568695
0.000112109375,1.0363208337046468
0.00011250000000000001,1.0384210636458904
0.00011289062500000001,1.0404080928853845
0.00011328125,1.0422790710016532
0.000113671875,1.0440314445861558
0.0001140625,1.0456629588086888
0.00011445312500000001,1.0471716583139257
0.00011484375000000001,1.048555887455375
0.00011523437500000001,1.0498142898744411
0.000115625,1.0509458074335614
0.000116015625,1.0519496785137388
0.00011640625,1.0528254356879905
0.00011679687500000001,1.0535729027834841
0.00011718750000000001,1.0541921913463252
0.00011757812500000001,1.0546836965240343
0.00011796875,1.0550480923819123
0.000118359375,1.0552863266704677
0.00011875,1.0553996150621097
0.00011914062500000001,1.055389434876242
0.00011953125000000001,1.0552575183127597
0.000119921875,1.0550058452148043
0.0001203125,1.0546366353824084
0.000120703125,1.054152340459368
0.00012109375,1.0535556354163549
0.00012148437500000001,1.052849409653886
0.00012187500000000001,1.0520367577493168
0.000122265625,1.051120969872505
0.00012265625000000002,1.0501055218952295
0.000123046875,1.0489940652197998
0.0001234375,1.0477904163526328
0.000123828125,1.0464985462487941
0.00012421875,1.0451225694536819
0.00012460937500000002,1.0436667330682063
0.000125,1.042135405563837
0.00012539062500000001,1.0405330654739215
0.00012578125,1.0388642899876497
0.000126171875,1.0371337434729004
0.0001265625,1.0353461659540732
0.000126953125,1.0335063615707798
0.00012734375000000002,1.031619187042996
0.000127734375,1.0296895401679789
0.000128125,1.0277223483738314
0.000128515625,1.0257225573542166
0.00012890625,1.0236951198082331
0.00012929687500000002,1.0216449843089226
0.0001296875,1.019577084323358
0.000130078125,1.0174963274066045
0.00013046875,1.01540758459122
0.000130859375,1.0133156799932648
0.00013125000000000002,1.0112253806550582
0.000131640625,1.009141386644148
0.00013203125000000001,1.007068321427171
0.000132421875,1.0050107225364473
0.0001328125,1.0029730325462711
0.000133203125,1.0009595903750126
0.00013359375,0.9989746229281933
0.00013398437500000002,0.9970222370967746
0.000134375,0.9951064121239643
0.000134765625,0.993230992352827
0.00013515625,0.9913996803660426
0.000135546875,0.9896160305281203
0.00013593750000000002,0.9878834429393788
0.000136328125,0.9862051578099701
0.00013671875,0.9845842502612129
0.000137109375,0.9830236255604422
0.0001375,0.981526014794582
0.00013789062500000002,0.9800939709865816
0.00013828125,0.9787298656578503
0.00013867187500000001,0.9774358858387894
0.0001390625,0.9762140315285108
0.000139453125,0.9750661136038126
0.00013984375,0.973993752176498
0.000140234375,0.9729983753971374
0.00014062500000000002,0.9720812187024136
0.000141015625,0.9712433245022296
0.00014140625,0.9704855423018391
0.000141796875,0.9698085292533639
0.0001421875,0.9692127511301472
0.00014257812500000002,0.9686984837165803
0.00014296875,0.9682658146051505
0.000143359375,0.9679146453917185
0.00014375,0.9676446942592078
0.000144140625,0.9674554989391633
0.00014453125000000002,0.9673464200399428
0.000144921875,0.9673166447295997
0.00014531250000000002,0.9673651907608851
0.000145703125,0.9674909108251994
0.00014609375,0.9676924972217305
0.000146484375,0.9679684868275076
0.000146875,0.9683172663535751
0.00014726562500000002,0.9687370778720701
0.00014765625,0.9692260245985342
0.000148046875,0.9697820769134322
0.0001484375,0.9704030786065103
0.000148828125,0.9710867533273286
0.00014921875000000002,0.9718307112250356
0.000149609375,0.9726324557602568
0.00015000000000000001,0.97348939067177
0.000150390625,0.9743988270805292
0.00015078125,0.9753579907134795
0.00015117187500000002,0.9763640292295704
0.0001515625,0.9774140196303553
0.00015195312500000002,0.9785049757375814
0.00015234375,0.9796338557202477
0.000152734375,0.9807975696537021
0.000153125,0.9819929870934985
0.000153515625,0.9832169446468968
0.00015390625000000002,0.984466253525112
0.000154296875,0.9857377070596637
0.0001546875,0.9870280881664404
0.000155078125,0.9883341767414525
0.00015546875,0.9896527569725284
0.00015585937500000002,0.9909806245516447
0.00015625,0.9923145937729596
0.00015664062500000001,0.9936515045020479
0.00015703125,0.9949882290023159
0.000157421875,0.9963216786050522
0.00015781250000000002,0.9976488102100829
0.000158203125,0.9989666326045387
0.00015859375000000002,1.0002722125877865
0.000158984375,1.0015626808911733
0.000159375,1.0028352378818055
0.000159765625,1.0040871590402158
0.00016015625,1.0053158002023745
0.00016054687500000002,1.0065186025571757
0.0001609375,1.0076930973911422
0.000161328125,1.0088369105727957
0.00016171875,1.0099477667697703
0.000162109375,1.011023493392482
0.00016250000000000002,1.0120620242587797
0.000162890625,1.0130614029747653
0.00016328125000000001,1.0140197860276172
0.000163671875,1.014935445586961
0.0001640625,1.015806772012014
0.00016445312500000002,1.0166322760624442
0.00016484375,1.0174105908115427
0.00016523437500000002,1.018140473261007
0.000165625,1.0188208056573083
0.000166015625,1.0194505965102714
0.00016640625,1.0200289813151815
0.000166796875,1.02055522298033
0.00016718750000000002,1.0210287119626198
0.000167578125,1.021448966114387
0.00016796875000000001,1.0218156302452768
0.000168359375,1.0221284754035678
0.00016875,1.0223873978819138
0.00016914062500000002,1.022592417953042
0.00016953125,1.022743678341473
0.00016992187500000002,1.0228414424378576
0.0001703125,1.0228860922630147
0.000170703125,1.0228781261892266
0.00017109375,1.0228181564268177
0.000171484375,1.0227069062844512
0.00017187500000000002,1.022545207211997
0.000172265625,1.0223339956352138
0.00017265625,1.022074309591811
0.000173046875,1.0217672851788344
0.0001734375,1.0214141528215746
0.00017382812500000002,1.0210162333745259
0.00017421875,1.0205749340651153
0.00017460937500000001,1.0200917442912076
0.000175,1.0195682312835477
0.000175390625,1.019006035644477
0.00017578125000000002,1.018406866774413
0.000176171875,1.01777249819771
0.00017656250000000002,1.017104762799558
0.000176953125,1.0164055479856882
0.00017734375,1.0156767907766668
0.000177734375,1.0149204728485637
0.000178125,1.0141386155317522
0.00017851562500000002,1.0133332747795927
0.00017890625,1.0125065361186163
0.000179296875,1.0116605095917992
0.0001796875,1.0107973247063353
0.000180078125,1.009919125397206
0.00018046875000000002,1.0090280650176764
0.000180859375,1.008126301367626
0.00018125000000000001,1.0072159917704446
0.000181640625,1.0062992882089719
0.00018203125,1.005378332530678
0.00018242187500000002,1.004455251732082
0.0001828125,1.0035321533320007
0.00018320312500000002,1.0026111208430135
0.00018359375,1.0016942093501249
0.000183984375,1.000783441205302
0.000184375,0.9998808018461763
0.000184765625,0.9989882357468347
0.00018515625000000002,0.9981076425082487
0.000185546875,0.9972408730954517
0.0001859375,0.9963897262282085
0.000186328125,0.9955559449314533
0.00018671875,0.9947412132513723
0.00018710937500000002,0.9939471531425602
0.0001875,0.9931753215312124
0.00018789062500000002,0.9924272075588925
0.00018828125,0.9917042300109352
0.000188671875,0.991007734933086
0.00018906250000000002,0.9903389934395336
0.000189453125,0.9896991997149843
0.00018984375000000002,0.9890894692130172
0.000190234375,0.988510837052443
0.000190625,0.987964256612946
0.000191015625,0.987450598330843
0.00019140625,0.9869706486952994
0.00019179687500000002,0.9865251094449184
0.0001921875,0.9861145969641614
0.00019257812500000001,0.9857396418786165
0.00019296875,0.9854006888476856
0.000193359375,0.9850980965528746
0.00019375000000000002,0.9848321378793936
0.000194140625,0.9846030002884246
0.00019453125000000002,0.9844107863769886
0.000194921875,0.9842555146219574
0.0001953125,0.9841371203043998
0.00019570312500000002,0.9840554566100816
0.00019609375,0.984010295901592
0.00019648437500000002,0.9840013311572469
0.000196875,0.9840281775715845
0.000197265625,0.9840903743119978
0.00019765625,0.9841873864257222
0.000198046875,0.9843186068911682
0.00019843750000000002,0.9844833588073005
0.000198828125,0.9846808977145585
0.00019921875000000001,0.9849104140405711
0.000199609375,0.985171035663734
